CAL       from CMSAF climatology   ROMECIAM   41.7990   12.5920
198301     0.238
198302     0.380
198303     0.318
198304     0.257
198305     0.201
198306     0.204
198307     0.106
198308     0.178
198309     0.157
198310     0.222
198311     0.290
198312     0.276
198401     0.283
198402     0.367
198403     0.356
198404     0.331
198405     0.335
198406     0.176
198407     0.051
198408     0.189
198409     0.315
198410     0.301
198411     0.288
198412     0.238
198501     0.422
198502     0.380
198503     0.430
198504     0.248
198505     0.297
198506     0.116
198507     0.059
198508     0.068
198509     0.079
198510     0.207
198511     0.338
198512     0.308
198601     0.378
198602     0.453
198603     0.396
198604     0.285
198605     0.153
198606     0.240
198607     0.143
198608     0.074
198609     0.181
198610     0.131
198611     0.229
198612     0.205
198701     0.388
198702     0.512
198703     0.235
198704     0.206
198705     0.297
198706     0.160
198707     0.155
198708     0.102
198709     0.097
198710     0.221
198711     0.346
198712     0.256
198801     0.314
198802     0.283
198803     0.280
198804     0.290
198805     0.289
198806     0.188
198807     0.058
198808     0.086
198809     0.164
198810     0.198
198811     0.264
198812     0.149
198901     0.188
198902     0.215
198903     0.177
198904     0.332
198905     0.245
198906     0.208
198907     0.162
198908     0.107
198909     0.219
198910     0.159
198911     0.241
198912     0.178
199001     0.201
199002     0.217
199003     0.298
199004     0.319
199005     0.230
199006     0.152
199007     0.106
199008     0.100
199009     0.137
199010     0.373
199011     0.326
199012     0.365
199101     0.281
199102     0.332
199103     0.312
199104     0.275
199105     0.263
199106     0.162
199107     0.095
199108     0.064
199109     0.213
199110     0.300
199111     0.356
199112     0.101
199201     0.209
199202     0.144
199203     0.305
199204     0.283
199205     0.146
199206     0.253
199207     0.119
199208     0.041
199209     0.087
199210     0.399
199211     0.252
199212     0.257
199301     0.222
199302     0.096
199303     0.205
199304     0.284
199305     0.240
199306     0.114
199307     0.084
199308     0.058
199309     0.202
199310     0.275
199311     0.366
199312     0.382
199401     0.290
199402     0.284
199403     0.155
199404     0.352
199405     0.190
199406     0.155
199407     0.104
199408     0.039
199409     0.215
199410     0.200
199411     0.199
199412     0.307
199501     0.268
199502     0.264
199503     0.307
199504     0.314
199505     0.233
199506     0.132
199507     0.095
199508     0.234
199509     0.225
199510     0.084
199511     0.259
199512     0.466
199601     0.286
199602     0.289
199603     0.299
199604     0.297
199605     0.243
199606     0.210
199607     0.102
199608     0.105
199609     0.250
199610     0.314
199611     0.364
199612     0.323
199701     0.274
199702     0.252
199703     0.173
199704     0.277
199705     0.104
199706     0.167
199707     0.096
199708     0.131
199709     0.148
199710     0.229
199711     0.429
199712     0.264
199801     0.257
199802     0.188
199803     0.177
199804     0.234
199805     0.217
199806     0.134
199807     0.029
199808     0.089
199809     0.195
199810     0.259
199811     0.339
199812     0.225
199901     0.204
199902     0.279
199903     0.242
199904     0.291
199905     0.197
199906     0.165
199907     0.150
199908     0.113
199909     0.173
199910     0.195
199911     0.249
199912     0.378
200001     0.216
200002     0.225
200003     0.301
200004     0.344
200005     0.217
200006     0.120
200007     0.082
200008     0.083
200009     0.138
200010     0.308
200011     0.313
200012     0.266
200101     0.372
200102     0.290
200103     0.307
200104     0.235
200105     0.294
200106     0.127
200107     0.077
200108     0.044
200109     0.190
200110     0.110
200111     0.300
200112     0.274
200201     0.198
200202     0.294
200203     0.189
200204     0.251
200205     0.220
200206     0.141
200207     0.193
200208     0.185
200209     0.245
200210     0.210
200211     0.412
200212     0.455
200301     0.367
200302     0.151
200303     0.137
200304     0.185
200305     0.177
200306     0.089
200307     0.041
200308     0.121
200309     0.167
200310     0.344
200311     0.302
200312     0.311
200401     0.377
200402     0.382
200403     0.317
200404     0.431
200405     0.201
200406     0.152
200407     0.062
200408     0.069
200409     0.170
200410     0.247
200411     0.353
200412     0.337
200501     0.223
200502     0.322
200503     0.230
200504     0.272
200505     0.186
200506     0.138
200507     0.067
200508     0.188
200509     0.242
200510     0.275
200511     0.291
200512     0.402
200601     0.278
200602     0.353
200603     0.366
200604     0.277
200605     0.135
200606     0.217
200607     0.092
200608     0.142
200609     0.185
200610     0.134
200611     0.171
200612     0.234
200701     0.334
200702     0.388
200703     0.309
200704     0.196
200705     0.232
200706     0.144
200707     0.003
200708     0.143
200709     0.177
200710     0.252
200711     0.302
200712     0.266
200801     0.405
200802     0.210
200803     0.387
200804     0.268
200805     0.259
200806     0.189
200807     0.066
200808     0.053
200809     0.181
200810     0.227
200811     0.346
200812     0.311
200901     0.439
200902     0.294
200903     0.295
200904     0.290
200905     0.127
200906     0.161
200907     0.049
200908     0.059
200909     0.205
200910     0.178
200911     0.299
200912     0.395
201001     0.415
201002     0.449
201003     0.335
201004     0.298
201005     0.370
201006     0.182
201007     0.064
201008     0.083
201009     0.217
201010     0.329
201011     0.444
201012     0.357
201101     0.309
201102     0.198
201103     0.345
201104     0.236
201105     0.131
201106     0.132
201107     0.126
201108     0.016
201109     0.097
201110     0.204
201111     0.105
201112     0.271
201201     0.256
201202     0.320
201203     0.120
201204     0.303
201205     0.193
201206     0.079
201207     0.070
201208     0.042
201209     0.291
201210     0.237
201211     0.348
201212     0.269
201301     0.348
201302     0.309
201303     0.466
201304     0.256
201305     0.364
201306     0.129
201307     0.107
201308     0.093
201309     0.158
201310     0.281
201311     0.390
201312     0.248
