CAL       from CMSAF climatology   GRENOBLE   45.1000    6.5000
198301     0.571
198302     0.583
198303     0.465
198304     0.616
198305     0.661
198306     0.419
198307     0.191
198308     0.382
198309     0.236
198310     0.258
198311     0.313
198312     0.555
198401     0.618
198402     0.750
198403     0.459
198404     0.392
198405     0.562
198406     0.456
198407     0.146
198408     0.338
198409     0.380
198410     0.368
198411     0.533
198412     0.378
198501     0.575
198502     0.694
198503     0.575
198504     0.472
198505     0.547
198506     0.331
198507     0.179
198508     0.160
198509     0.116
198510     0.182
198511     0.552
198512     0.420
198601     0.752
198602     0.700
198603     0.517
198604     0.606
198605     0.426
198606     0.345
198607     0.217
198608     0.210
198609     0.240
198610     0.274
198611     0.361
198612     0.563
198701     0.700
198702     0.657
198703     0.457
198704     0.504
198705     0.399
198706     0.368
198707     0.382
198708     0.205
198709     0.192
198710     0.519
198711     0.578
198712     0.685
198801     0.647
198802     0.657
198803     0.532
198804     0.519
198805     0.499
198806     0.430
198807     0.166
198808     0.268
198809     0.207
198810     0.383
198811     0.429
198812     0.880
198901     0.533
198902     0.474
198903     0.606
198904     0.619
198905     0.408
198906     0.294
198907     0.286
198908     0.239
198909     0.299
198910     0.350
198911     0.651
198912     0.637
199001     0.717
199002     0.843
199003     0.641
199004     0.608
199005     0.439
199006     0.425
199007     0.175
199008     0.227
199009     0.236
199010     0.534
199011     0.771
199012     0.844
199101     0.806
199102     0.684
199103     0.495
199104     0.475
199105     0.433
199106     0.372
199107     0.244
199108     0.115
199109     0.312
199110     0.485
199111     0.575
199112     0.371
199201     0.539
199202     0.331
199203     0.381
199204     0.551
199205     0.384
199206     0.519
199207     0.282
199208     0.220
199209     0.312
199210     0.714
199211     0.506
199212     0.529
199301     0.301
199302     0.340
199303     0.462
199304     0.471
199305     0.511
199306     0.376
199307     0.276
199308     0.227
199309     0.412
199310     0.541
199311     0.374
199312     0.657
199401     0.666
199402     0.772
199403     0.453
199404     0.573
199405     0.542
199406     0.258
199407     0.239
199408     0.217
199409     0.480
199410     0.354
199411     0.496
199412     0.452
199501     0.823
199502     0.796
199503     0.633
199504     0.511
199505     0.500
199506     0.287
199507     0.230
199508     0.267
199509     0.316
199510     0.188
199511     0.407
199512     0.628
199601     0.772
199602     0.844
199603     0.595
199604     0.402
199605     0.514
199606     0.348
199607     0.341
199608     0.320
199609     0.268
199610     0.465
199611     0.708
199612     0.845
199701     0.858
199702     0.771
199703     0.488
199704     0.234
199705     0.413
199706     0.419
199707     0.256
199708     0.235
199709     0.133
199710     0.176
199711     0.612
199712     0.571
199801     0.792
199802     0.705
199803     0.433
199804     0.546
199805     0.292
199806     0.300
199807     0.179
199808     0.206
199809     0.320
199810     0.351
199811     0.352
199812     0.517
199901     0.794
199902     0.691
199903     0.563
199904     0.538
199905     0.436
199906     0.307
199907     0.285
199908     0.276
199909     0.330
199910     0.430
199911     0.670
199912     0.760
200001     0.665
200002     0.641
200003     0.528
200004     0.578
200005     0.390
200006     0.287
200007     0.297
200008     0.278
200009     0.205
200010     0.501
200011     0.752
200012     0.748
200101     0.823
200102     0.811
200103     0.716
200104     0.551
200105     0.509
200106     0.386
200107     0.248
200108     0.201
200109     0.306
200110     0.208
200111     0.500
200112     0.382
200201     0.506
200202     0.598
200203     0.558
200204     0.438
200205     0.506
200206     0.311
200207     0.281
200208     0.311
200209     0.275
200210     0.302
200211     0.627
200212     0.778
200301     0.868
200302     0.818
200303     0.514
200304     0.456
200305     0.428
200306     0.223
200307     0.176
200308     0.255
200309     0.216
200310     0.526
200311     0.590
200312     0.533
200401     0.789
200402     0.720
200403     0.591
200404     0.504
200405     0.440
200406     0.262
200407     0.211
200408     0.265
200409     0.122
200410     0.471
200411     0.305
200412     0.651
200501     0.710
200502     0.641
200503     0.474
200504     0.516
200505     0.384
200506     0.218
200507     0.249
200508     0.289
200509     0.304
200510     0.309
200511     0.339
200512     0.795
200601     0.824
200602     0.787
200603     0.787
200604     0.613
200605     0.446
200606     0.269
200607     0.285
200608     0.236
200609     0.370
200610     0.211
200611     0.455
200612     0.923
200701     0.798
200702     0.681
200703     0.527
200704     0.444
200705     0.483
200706     0.386
200707     0.110
200708     0.336
200709     0.191
200710     0.239
200711     0.635
200712     0.987
200801     0.991
200802     0.832
200803     0.635
200804     0.536
200805     0.507
200806     0.356
200807     0.273
200808     0.222
200809     0.269
200810     0.344
200811     0.822
200812     0.896
200901     0.980
200902     0.900
200903     0.591
200904     0.598
200905     0.504
200906     0.263
200907     0.169
200908     0.204
200909     0.304
200910     0.372
200911     0.619
200912     0.866
201001     0.852
201002     0.891
201003     0.812
201004     0.561
201005     0.567
201006     0.429
201007     0.210
201008     0.288
201009     0.216
201010     0.357
201011     0.794
201012     0.910
201101     0.937
201102     0.883
201103     0.715
201104     0.388
201105     0.391
201106     0.410
201107     0.333
201108     0.195
201109     0.209
201110     0.340
201111     0.804
201112     0.916
201201     0.921
201202     0.861
201203     0.594
201204     0.500
201205     0.461
201206     0.322
201207     0.250
201208     0.225
201209     0.365
201210     0.359
201211     0.740
201212     0.942
201301     0.954
201302     0.884
201303     0.827
201304     0.598
201305     0.572
201306     0.445
201307     0.279
201308     0.221
201309     0.211
201310     0.389
201311     0.749
201312     0.727
